The tests in this directory were imported from the W3C repository.
Do NOT modify these tests directly in WebKit.
Instead, create a pull request on the WPT github:
	https://github.com/web-platform-tests/wpt

Then run the Tools/Scripts/import-w3c-tests in WebKit to reimport

Do NOT modify or remove this file.

------------------------------------------------------------------------
Properties requiring vendor prefixes:
None
Property values requiring vendor prefixes:
None
------------------------------------------------------------------------
List of files:
/LayoutTests/imported/w3c/web-platform-tests/html/semantics/embedded-content/the-iframe-element/support/blank.htm
/LayoutTests/imported/w3c/web-platform-tests/html/semantics/embedded-content/the-iframe-element/support/download_stash.py
/LayoutTests/imported/w3c/web-platform-tests/html/semantics/embedded-content/the-iframe-element/support/iframe-that-checks-contentDocument.html
/LayoutTests/imported/w3c/web-platform-tests/html/semantics/embedded-content/the-iframe-element/support/iframe-that-opens-modals.html
/LayoutTests/imported/w3c/web-platform-tests/html/semantics/embedded-content/the-iframe-element/support/iframe-that-performs-top-navigation-on-popup.html
/LayoutTests/imported/w3c/web-platform-tests/html/semantics/embedded-content/the-iframe-element/support/iframe-that-performs-top-navigation-without-user-gesture-failed.html
/LayoutTests/imported/w3c/web-platform-tests/html/semantics/embedded-content/the-iframe-element/support/iframe-that-performs-top-navigation.html
/LayoutTests/imported/w3c/web-platform-tests/html/semantics/embedded-content/the-iframe-element/support/iframe-that-tries-to-navigate-parent-and-sends-result-to-grandparent.html
/LayoutTests/imported/w3c/web-platform-tests/html/semantics/embedded-content/the-iframe-element/support/iframe-tried-to-be-navigated-by-its-child.html
/LayoutTests/imported/w3c/web-platform-tests/html/semantics/embedded-content/the-iframe-element/support/iframe-trying-to-navigate-its-child.html
/LayoutTests/imported/w3c/web-platform-tests/html/semantics/embedded-content/the-iframe-element/support/iframe-trying-to-navigate-itself.html
/LayoutTests/imported/w3c/web-platform-tests/html/semantics/embedded-content/the-iframe-element/support/iframe_sandbox_001.htm
/LayoutTests/imported/w3c/web-platform-tests/html/semantics/embedded-content/the-iframe-element/support/iframe_sandbox_002.htm
/LayoutTests/imported/w3c/web-platform-tests/html/semantics/embedded-content/the-iframe-element/support/iframe_sandbox_003.htm
/LayoutTests/imported/w3c/web-platform-tests/html/semantics/embedded-content/the-iframe-element/support/iframe_sandbox_004.htm
/LayoutTests/imported/w3c/web-platform-tests/html/semantics/embedded-content/the-iframe-element/support/iframe_sandbox_006.htm
/LayoutTests/imported/w3c/web-platform-tests/html/semantics/embedded-content/the-iframe-element/support/iframe_sandbox_007.htm
/LayoutTests/imported/w3c/web-platform-tests/html/semantics/embedded-content/the-iframe-element/support/iframe_sandbox_008.htm
/LayoutTests/imported/w3c/web-platform-tests/html/semantics/embedded-content/the-iframe-element/support/iframe_sandbox_010.htm
/LayoutTests/imported/w3c/web-platform-tests/html/semantics/embedded-content/the-iframe-element/support/iframe_sandbox_012.htm
/LayoutTests/imported/w3c/web-platform-tests/html/semantics/embedded-content/the-iframe-element/support/iframe_sandbox_020.htm
/LayoutTests/imported/w3c/web-platform-tests/html/semantics/embedded-content/the-iframe-element/support/iframe_sandbox_020a.htm
/LayoutTests/imported/w3c/web-platform-tests/html/semantics/embedded-content/the-iframe-element/support/iframe_sandbox_021.htm
/LayoutTests/imported/w3c/web-platform-tests/html/semantics/embedded-content/the-iframe-element/support/iframe_sandbox_021a.htm
/LayoutTests/imported/w3c/web-platform-tests/html/semantics/embedded-content/the-iframe-element/support/iframe_sandbox_022.htm
/LayoutTests/imported/w3c/web-platform-tests/html/semantics/embedded-content/the-iframe-element/support/iframe_sandbox_023.htm
/LayoutTests/imported/w3c/web-platform-tests/html/semantics/embedded-content/the-iframe-element/support/iframe_sandbox_024.htm
/LayoutTests/imported/w3c/web-platform-tests/html/semantics/embedded-content/the-iframe-element/support/iframe_sandbox_026.htm
/LayoutTests/imported/w3c/web-platform-tests/html/semantics/embedded-content/the-iframe-element/support/iframe_sandbox_027.htm
/LayoutTests/imported/w3c/web-platform-tests/html/semantics/embedded-content/the-iframe-element/support/iframe_sandbox_028.htm
/LayoutTests/imported/w3c/web-platform-tests/html/semantics/embedded-content/the-iframe-element/support/iframe_sandbox_029.htm
/LayoutTests/imported/w3c/web-platform-tests/html/semantics/embedded-content/the-iframe-element/support/iframe_sandbox_031.htm
/LayoutTests/imported/w3c/web-platform-tests/html/semantics/embedded-content/the-iframe-element/support/iframe_sandbox_032.htm
/LayoutTests/imported/w3c/web-platform-tests/html/semantics/embedded-content/the-iframe-element/support/iframe_sandbox_block_modals.js
/LayoutTests/imported/w3c/web-platform-tests/html/semantics/embedded-content/the-iframe-element/support/iframe_sandbox_download_helper.js
/LayoutTests/imported/w3c/web-platform-tests/html/semantics/embedded-content/the-iframe-element/support/load-into-the-iframe.html
/LayoutTests/imported/w3c/web-platform-tests/html/semantics/embedded-content/the-iframe-element/support/navigation-changed-iframe.html
/LayoutTests/imported/w3c/web-platform-tests/html/semantics/embedded-content/the-iframe-element/support/sandbox.pdf
/LayoutTests/imported/w3c/web-platform-tests/html/semantics/embedded-content/the-iframe-element/support/sandbox_allow_script.html
/LayoutTests/imported/w3c/web-platform-tests/html/semantics/embedded-content/the-iframe-element/support/sandbox_helper.js
/LayoutTests/imported/w3c/web-platform-tests/html/semantics/embedded-content/the-iframe-element/support/standalone-fail.htm
/LayoutTests/imported/w3c/web-platform-tests/html/semantics/embedded-content/the-iframe-element/support/standalone-iframe-content.htm
/LayoutTests/imported/w3c/web-platform-tests/html/semantics/embedded-content/the-iframe-element/support/standalone-pass.htm
