The tests in this directory were imported from the W3C repository.
Do NOT modify these tests directly in WebKit.
Instead, create a pull request on the WPT github:
	https://github.com/web-platform-tests/wpt

Then run the Tools/Scripts/import-w3c-tests in WebKit to reimport

Do NOT modify or remove this file.

------------------------------------------------------------------------
Properties requiring vendor prefixes:
None
Property values requiring vendor prefixes:
None
------------------------------------------------------------------------
List of files:
/LayoutTests/imported/w3c/web-platform-tests/tools/wptrunner/docs/Makefile
/LayoutTests/imported/w3c/web-platform-tests/tools/wptrunner/docs/architecture.svg
/LayoutTests/imported/w3c/web-platform-tests/tools/wptrunner/docs/conf.py
/LayoutTests/imported/w3c/web-platform-tests/tools/wptrunner/docs/design.rst
/LayoutTests/imported/w3c/web-platform-tests/tools/wptrunner/docs/expectation.rst
/LayoutTests/imported/w3c/web-platform-tests/tools/wptrunner/docs/index.rst
/LayoutTests/imported/w3c/web-platform-tests/tools/wptrunner/docs/make.bat
/LayoutTests/imported/w3c/web-platform-tests/tools/wptrunner/docs/usage.rst
