The tests in this directory were imported from the W3C repository.
Do NOT modify these tests directly in WebKit.
Instead, create a pull request on the WPT github:
	https://github.com/w3c/web-platform-tests

Then run the Tools/Scripts/import-w3c-tests in WebKit to reimport

Do NOT modify or remove this file.

------------------------------------------------------------------------
Properties requiring vendor prefixes:
None
Property values requiring vendor prefixes:
None
------------------------------------------------------------------------
List of files:
/LayoutTests/imported/w3c/web-platform-tests/css/css-shapes/shape-outside/shape-box/shape-outside-box-002-expected.html
/LayoutTests/imported/w3c/web-platform-tests/css/css-shapes/shape-outside/shape-box/shape-outside-box-002.html
/LayoutTests/imported/w3c/web-platform-tests/css/css-shapes/shape-outside/shape-box/shape-outside-box-003-expected.html
/LayoutTests/imported/w3c/web-platform-tests/css/css-shapes/shape-outside/shape-box/shape-outside-box-003.html
/LayoutTests/imported/w3c/web-platform-tests/css/css-shapes/shape-outside/shape-box/shape-outside-box-004-expected.html
/LayoutTests/imported/w3c/web-platform-tests/css/css-shapes/shape-outside/shape-box/shape-outside-box-004.html
/LayoutTests/imported/w3c/web-platform-tests/css/css-shapes/shape-outside/shape-box/shape-outside-box-006-expected.html
/LayoutTests/imported/w3c/web-platform-tests/css/css-shapes/shape-outside/shape-box/shape-outside-box-006.html
/LayoutTests/imported/w3c/web-platform-tests/css/css-shapes/shape-outside/shape-box/shape-outside-box-007-expected.html
/LayoutTests/imported/w3c/web-platform-tests/css/css-shapes/shape-outside/shape-box/shape-outside-box-007.html
/LayoutTests/imported/w3c/web-platform-tests/css/css-shapes/shape-outside/shape-box/shape-outside-box-008-expected.html
/LayoutTests/imported/w3c/web-platform-tests/css/css-shapes/shape-outside/shape-box/shape-outside-box-008.html
/LayoutTests/imported/w3c/web-platform-tests/css/css-shapes/shape-outside/shape-box/shape-outside-box-009-expected.html
/LayoutTests/imported/w3c/web-platform-tests/css/css-shapes/shape-outside/shape-box/shape-outside-box-009.html
