The tests in this directory were imported from the W3C repository.
Do NOT modify these tests directly in WebKit.
Instead, create a pull request on the WPT github:
	https://github.com/w3c/web-platform-tests

Then run the Tools/Scripts/import-w3c-tests in WebKit to reimport

Do NOT modify or remove this file.

------------------------------------------------------------------------
Properties requiring vendor prefixes:
None
Property values requiring vendor prefixes:
None
------------------------------------------------------------------------
List of files:
/LayoutTests/imported/w3c/web-platform-tests/html/browsers/browsing-the-web/history-traversal/persisted-user-state-restoration/resume-timer-on-history-back.html
/LayoutTests/imported/w3c/web-platform-tests/html/browsers/browsing-the-web/history-traversal/persisted-user-state-restoration/scroll-restoration-basic.html
/LayoutTests/imported/w3c/web-platform-tests/html/browsers/browsing-the-web/history-traversal/persisted-user-state-restoration/scroll-restoration-fragment-scrolling-cross-origin.html
/LayoutTests/imported/w3c/web-platform-tests/html/browsers/browsing-the-web/history-traversal/persisted-user-state-restoration/scroll-restoration-fragment-scrolling-samedoc.html
/LayoutTests/imported/w3c/web-platform-tests/html/browsers/browsing-the-web/history-traversal/persisted-user-state-restoration/scroll-restoration-navigation-cross-origin.html
/LayoutTests/imported/w3c/web-platform-tests/html/browsers/browsing-the-web/history-traversal/persisted-user-state-restoration/scroll-restoration-navigation-samedoc.html
