The tests in this directory were imported from the W3C repository.
Do NOT modify these tests directly in WebKit.
Instead, create a pull request on the WPT github:
	https://github.com/web-platform-tests/wpt

Then run the Tools/Scripts/import-w3c-tests in WebKit to reimport

Do NOT modify or remove this file.

------------------------------------------------------------------------
Properties requiring vendor prefixes:
None
Property values requiring vendor prefixes:
None
------------------------------------------------------------------------
List of files:
/LayoutTests/imported/w3c/web-platform-tests/tools/wptrunner/test/testdata/testharness/testharness.https.html
/LayoutTests/imported/w3c/web-platform-tests/tools/wptrunner/test/testdata/testharness/testharness_0.html
/LayoutTests/imported/w3c/web-platform-tests/tools/wptrunner/test/testdata/testharness/testharness_error.html
/LayoutTests/imported/w3c/web-platform-tests/tools/wptrunner/test/testdata/testharness/testharness_long_timeout.html
/LayoutTests/imported/w3c/web-platform-tests/tools/wptrunner/test/testdata/testharness/testharness_timeout.html
