The tests in this directory were imported from the W3C repository.
Do NOT modify these tests directly in WebKit.
Instead, create a pull request on the WPT github:
	https://github.com/w3c/web-platform-tests

Then run the Tools/Scripts/import-w3c-tests in WebKit to reimport

Do NOT modify or remove this file.

------------------------------------------------------------------------
Properties requiring vendor prefixes:
None
Property values requiring vendor prefixes:
None
------------------------------------------------------------------------
List of files:
/LayoutTests/imported/w3c/web-platform-tests/cors/304.htm
/LayoutTests/imported/w3c/web-platform-tests/cors/OWNERS
/LayoutTests/imported/w3c/web-platform-tests/cors/README.md
/LayoutTests/imported/w3c/web-platform-tests/cors/access-control-expose-headers-parsing.window.js
/LayoutTests/imported/w3c/web-platform-tests/cors/allow-headers.htm
/LayoutTests/imported/w3c/web-platform-tests/cors/basic.htm
/LayoutTests/imported/w3c/web-platform-tests/cors/client-hint-request-headers.htm
/LayoutTests/imported/w3c/web-platform-tests/cors/credentials-flag.htm
/LayoutTests/imported/w3c/web-platform-tests/cors/image-tainting-in-cross-origin-iframe.sub.html
/LayoutTests/imported/w3c/web-platform-tests/cors/late-upload-events.htm
/LayoutTests/imported/w3c/web-platform-tests/cors/origin.htm
/LayoutTests/imported/w3c/web-platform-tests/cors/preflight-cache.htm
/LayoutTests/imported/w3c/web-platform-tests/cors/preflight-failure.htm
/LayoutTests/imported/w3c/web-platform-tests/cors/redirect-origin.htm
/LayoutTests/imported/w3c/web-platform-tests/cors/redirect-preflight-2.htm
/LayoutTests/imported/w3c/web-platform-tests/cors/redirect-preflight.htm
/LayoutTests/imported/w3c/web-platform-tests/cors/redirect-userinfo.htm
/LayoutTests/imported/w3c/web-platform-tests/cors/remote-origin.htm
/LayoutTests/imported/w3c/web-platform-tests/cors/request-headers.htm
/LayoutTests/imported/w3c/web-platform-tests/cors/response-headers.htm
/LayoutTests/imported/w3c/web-platform-tests/cors/simple-requests.htm
/LayoutTests/imported/w3c/web-platform-tests/cors/status-async.htm
/LayoutTests/imported/w3c/web-platform-tests/cors/status-preflight.htm
/LayoutTests/imported/w3c/web-platform-tests/cors/status.htm
/LayoutTests/imported/w3c/web-platform-tests/cors/support.js
