The tests in this directory were imported from the W3C repository.
Do NOT modify these tests directly in WebKit.
Instead, create a pull request on the WPT github:
	https://github.com/web-platform-tests/wpt

Then run the Tools/Scripts/import-w3c-tests in WebKit to reimport

Do NOT modify or remove this file.

------------------------------------------------------------------------
Properties requiring vendor prefixes:
None
Property values requiring vendor prefixes:
None
------------------------------------------------------------------------
List of files:
/LayoutTests/imported/w3c/web-platform-tests/websockets/constructor/001.html
/LayoutTests/imported/w3c/web-platform-tests/websockets/constructor/002.html
/LayoutTests/imported/w3c/web-platform-tests/websockets/constructor/004.html
/LayoutTests/imported/w3c/web-platform-tests/websockets/constructor/005.html
/LayoutTests/imported/w3c/web-platform-tests/websockets/constructor/006.html
/LayoutTests/imported/w3c/web-platform-tests/websockets/constructor/007.html
/LayoutTests/imported/w3c/web-platform-tests/websockets/constructor/008.html
/LayoutTests/imported/w3c/web-platform-tests/websockets/constructor/009.html
/LayoutTests/imported/w3c/web-platform-tests/websockets/constructor/010.html
/LayoutTests/imported/w3c/web-platform-tests/websockets/constructor/011.html
/LayoutTests/imported/w3c/web-platform-tests/websockets/constructor/012.html
/LayoutTests/imported/w3c/web-platform-tests/websockets/constructor/013.html
/LayoutTests/imported/w3c/web-platform-tests/websockets/constructor/014.html
/LayoutTests/imported/w3c/web-platform-tests/websockets/constructor/016.html
/LayoutTests/imported/w3c/web-platform-tests/websockets/constructor/017.html
/LayoutTests/imported/w3c/web-platform-tests/websockets/constructor/018.html
/LayoutTests/imported/w3c/web-platform-tests/websockets/constructor/019.html
/LayoutTests/imported/w3c/web-platform-tests/websockets/constructor/020.html
/LayoutTests/imported/w3c/web-platform-tests/websockets/constructor/021.html
/LayoutTests/imported/w3c/web-platform-tests/websockets/constructor/022.html
