The tests in this directory were imported from the W3C repository.
Do NOT modify these tests directly in WebKit.
Instead, create a pull request on the WPT github:
	https://github.com/w3c/web-platform-tests

Then run the Tools/Scripts/import-w3c-tests in WebKit to reimport

Do NOT modify or remove this file.

------------------------------------------------------------------------
Properties requiring vendor prefixes:
None
Property values requiring vendor prefixes:
None
------------------------------------------------------------------------
List of files:
/LayoutTests/imported/w3c/web-platform-tests/css/css-display/OWNERS
/LayoutTests/imported/w3c/web-platform-tests/css/css-display/display-contents-alignment-001-expected.html
/LayoutTests/imported/w3c/web-platform-tests/css/css-display/display-contents-alignment-001.html
/LayoutTests/imported/w3c/web-platform-tests/css/css-display/display-contents-alignment-002-expected.html
/LayoutTests/imported/w3c/web-platform-tests/css/css-display/display-contents-alignment-002.html
/LayoutTests/imported/w3c/web-platform-tests/css/css-display/display-contents-before-after-001-expected.html
/LayoutTests/imported/w3c/web-platform-tests/css/css-display/display-contents-before-after-001.html
/LayoutTests/imported/w3c/web-platform-tests/css/css-display/display-contents-before-after-002-expected.html
/LayoutTests/imported/w3c/web-platform-tests/css/css-display/display-contents-before-after-002.html
/LayoutTests/imported/w3c/web-platform-tests/css/css-display/display-contents-before-after-003-expected.html
/LayoutTests/imported/w3c/web-platform-tests/css/css-display/display-contents-before-after-003.html
/LayoutTests/imported/w3c/web-platform-tests/css/css-display/display-contents-block-001-expected.html
/LayoutTests/imported/w3c/web-platform-tests/css/css-display/display-contents-block-001.html
/LayoutTests/imported/w3c/web-platform-tests/css/css-display/display-contents-block-002-expected.html
/LayoutTests/imported/w3c/web-platform-tests/css/css-display/display-contents-block-002.html
/LayoutTests/imported/w3c/web-platform-tests/css/css-display/display-contents-button-expected.html
/LayoutTests/imported/w3c/web-platform-tests/css/css-display/display-contents-button.html
/LayoutTests/imported/w3c/web-platform-tests/css/css-display/display-contents-computed-style.html
/LayoutTests/imported/w3c/web-platform-tests/css/css-display/display-contents-details-001-expected.html
/LayoutTests/imported/w3c/web-platform-tests/css/css-display/display-contents-details-001.html
/LayoutTests/imported/w3c/web-platform-tests/css/css-display/display-contents-details-expected.html
/LayoutTests/imported/w3c/web-platform-tests/css/css-display/display-contents-details.html
/LayoutTests/imported/w3c/web-platform-tests/css/css-display/display-contents-dynamic-before-after-001-expected.html
/LayoutTests/imported/w3c/web-platform-tests/css/css-display/display-contents-dynamic-before-after-001.html
/LayoutTests/imported/w3c/web-platform-tests/css/css-display/display-contents-dynamic-before-after-first-letter-001-expected.html
/LayoutTests/imported/w3c/web-platform-tests/css/css-display/display-contents-dynamic-before-after-first-letter-001.html
/LayoutTests/imported/w3c/web-platform-tests/css/css-display/display-contents-dynamic-flex-001-inline-expected.html
/LayoutTests/imported/w3c/web-platform-tests/css/css-display/display-contents-dynamic-flex-001-inline.html
/LayoutTests/imported/w3c/web-platform-tests/css/css-display/display-contents-dynamic-flex-001-none-expected.html
/LayoutTests/imported/w3c/web-platform-tests/css/css-display/display-contents-dynamic-flex-001-none.html
/LayoutTests/imported/w3c/web-platform-tests/css/css-display/display-contents-dynamic-flex-002-inline-expected.html
/LayoutTests/imported/w3c/web-platform-tests/css/css-display/display-contents-dynamic-flex-002-inline.html
/LayoutTests/imported/w3c/web-platform-tests/css/css-display/display-contents-dynamic-flex-002-none-expected.html
/LayoutTests/imported/w3c/web-platform-tests/css/css-display/display-contents-dynamic-flex-002-none.html
/LayoutTests/imported/w3c/web-platform-tests/css/css-display/display-contents-dynamic-flex-003-inline-expected.html
/LayoutTests/imported/w3c/web-platform-tests/css/css-display/display-contents-dynamic-flex-003-inline.html
/LayoutTests/imported/w3c/web-platform-tests/css/css-display/display-contents-dynamic-flex-003-none-expected.html
/LayoutTests/imported/w3c/web-platform-tests/css/css-display/display-contents-dynamic-flex-003-none.html
/LayoutTests/imported/w3c/web-platform-tests/css/css-display/display-contents-dynamic-generated-content-fieldset-001-expected.html
/LayoutTests/imported/w3c/web-platform-tests/css/css-display/display-contents-dynamic-generated-content-fieldset-001.html
/LayoutTests/imported/w3c/web-platform-tests/css/css-display/display-contents-dynamic-inline-flex-001-inline-expected.html
/LayoutTests/imported/w3c/web-platform-tests/css/css-display/display-contents-dynamic-inline-flex-001-inline.html
/LayoutTests/imported/w3c/web-platform-tests/css/css-display/display-contents-dynamic-inline-flex-001-none-expected.html
/LayoutTests/imported/w3c/web-platform-tests/css/css-display/display-contents-dynamic-inline-flex-001-none.html
/LayoutTests/imported/w3c/web-platform-tests/css/css-display/display-contents-dynamic-list-001-inline-expected.html
/LayoutTests/imported/w3c/web-platform-tests/css/css-display/display-contents-dynamic-list-001-inline.html
/LayoutTests/imported/w3c/web-platform-tests/css/css-display/display-contents-dynamic-list-001-none-expected.html
/LayoutTests/imported/w3c/web-platform-tests/css/css-display/display-contents-dynamic-list-001-none.html
/LayoutTests/imported/w3c/web-platform-tests/css/css-display/display-contents-dynamic-multicol-001-inline-expected.html
/LayoutTests/imported/w3c/web-platform-tests/css/css-display/display-contents-dynamic-multicol-001-inline.html
/LayoutTests/imported/w3c/web-platform-tests/css/css-display/display-contents-dynamic-multicol-001-none-expected.html
/LayoutTests/imported/w3c/web-platform-tests/css/css-display/display-contents-dynamic-multicol-001-none.html
/LayoutTests/imported/w3c/web-platform-tests/css/css-display/display-contents-dynamic-pseudo-insertion-001-expected.html
/LayoutTests/imported/w3c/web-platform-tests/css/css-display/display-contents-dynamic-pseudo-insertion-001.html
/LayoutTests/imported/w3c/web-platform-tests/css/css-display/display-contents-dynamic-table-001-inline-expected.html
/LayoutTests/imported/w3c/web-platform-tests/css/css-display/display-contents-dynamic-table-001-inline.html
/LayoutTests/imported/w3c/web-platform-tests/css/css-display/display-contents-dynamic-table-001-none-expected.html
/LayoutTests/imported/w3c/web-platform-tests/css/css-display/display-contents-dynamic-table-001-none.html
/LayoutTests/imported/w3c/web-platform-tests/css/css-display/display-contents-dynamic-table-002-inline-expected.html
/LayoutTests/imported/w3c/web-platform-tests/css/css-display/display-contents-dynamic-table-002-inline.html
/LayoutTests/imported/w3c/web-platform-tests/css/css-display/display-contents-dynamic-table-002-none-expected.html
/LayoutTests/imported/w3c/web-platform-tests/css/css-display/display-contents-dynamic-table-002-none.html
/LayoutTests/imported/w3c/web-platform-tests/css/css-display/display-contents-fieldset-expected.html
/LayoutTests/imported/w3c/web-platform-tests/css/css-display/display-contents-fieldset-nested-legend-expected.html
/LayoutTests/imported/w3c/web-platform-tests/css/css-display/display-contents-fieldset-nested-legend.html
/LayoutTests/imported/w3c/web-platform-tests/css/css-display/display-contents-fieldset.html
/LayoutTests/imported/w3c/web-platform-tests/css/css-display/display-contents-first-letter-001-expected.html
/LayoutTests/imported/w3c/web-platform-tests/css/css-display/display-contents-first-letter-001.html
/LayoutTests/imported/w3c/web-platform-tests/css/css-display/display-contents-first-letter-002-expected.html
/LayoutTests/imported/w3c/web-platform-tests/css/css-display/display-contents-first-letter-002.html
/LayoutTests/imported/w3c/web-platform-tests/css/css-display/display-contents-first-line-001-expected.html
/LayoutTests/imported/w3c/web-platform-tests/css/css-display/display-contents-first-line-001.html
/LayoutTests/imported/w3c/web-platform-tests/css/css-display/display-contents-first-line-002-expected.html
/LayoutTests/imported/w3c/web-platform-tests/css/css-display/display-contents-first-line-002.html
/LayoutTests/imported/w3c/web-platform-tests/css/css-display/display-contents-flex-001-expected.html
/LayoutTests/imported/w3c/web-platform-tests/css/css-display/display-contents-flex-001.html
/LayoutTests/imported/w3c/web-platform-tests/css/css-display/display-contents-flex-002-expected.html
/LayoutTests/imported/w3c/web-platform-tests/css/css-display/display-contents-flex-002.html
/LayoutTests/imported/w3c/web-platform-tests/css/css-display/display-contents-flex-003-expected.html
/LayoutTests/imported/w3c/web-platform-tests/css/css-display/display-contents-flex-003.html
/LayoutTests/imported/w3c/web-platform-tests/css/css-display/display-contents-float-001-expected.html
/LayoutTests/imported/w3c/web-platform-tests/css/css-display/display-contents-float-001.html
/LayoutTests/imported/w3c/web-platform-tests/css/css-display/display-contents-inline-001-expected.html
/LayoutTests/imported/w3c/web-platform-tests/css/css-display/display-contents-inline-001.html
/LayoutTests/imported/w3c/web-platform-tests/css/css-display/display-contents-inline-flex-001-expected.html
/LayoutTests/imported/w3c/web-platform-tests/css/css-display/display-contents-inline-flex-001.html
/LayoutTests/imported/w3c/web-platform-tests/css/css-display/display-contents-line-height-expected.html
/LayoutTests/imported/w3c/web-platform-tests/css/css-display/display-contents-line-height.html
/LayoutTests/imported/w3c/web-platform-tests/css/css-display/display-contents-list-001-expected.html
/LayoutTests/imported/w3c/web-platform-tests/css/css-display/display-contents-list-001.html
/LayoutTests/imported/w3c/web-platform-tests/css/css-display/display-contents-multicol-001-expected.html
/LayoutTests/imported/w3c/web-platform-tests/css/css-display/display-contents-multicol-001.html
/LayoutTests/imported/w3c/web-platform-tests/css/css-display/display-contents-oof-001-expected.html
/LayoutTests/imported/w3c/web-platform-tests/css/css-display/display-contents-oof-001.html
/LayoutTests/imported/w3c/web-platform-tests/css/css-display/display-contents-oof-002-expected.html
/LayoutTests/imported/w3c/web-platform-tests/css/css-display/display-contents-oof-002.html
/LayoutTests/imported/w3c/web-platform-tests/css/css-display/display-contents-parsing-001.html
/LayoutTests/imported/w3c/web-platform-tests/css/css-display/display-contents-state-change-001-expected.html
/LayoutTests/imported/w3c/web-platform-tests/css/css-display/display-contents-state-change-001.html
/LayoutTests/imported/w3c/web-platform-tests/css/css-display/display-contents-suppression-dynamic-001-expected.html
/LayoutTests/imported/w3c/web-platform-tests/css/css-display/display-contents-suppression-dynamic-001.html
/LayoutTests/imported/w3c/web-platform-tests/css/css-display/display-contents-svg-anchor-child.html
/LayoutTests/imported/w3c/web-platform-tests/css/css-display/display-contents-svg-elements-expected.html
/LayoutTests/imported/w3c/web-platform-tests/css/css-display/display-contents-svg-elements.html
/LayoutTests/imported/w3c/web-platform-tests/css/css-display/display-contents-svg-switch-child.html
/LayoutTests/imported/w3c/web-platform-tests/css/css-display/display-contents-table-001-expected.html
/LayoutTests/imported/w3c/web-platform-tests/css/css-display/display-contents-table-001.html
/LayoutTests/imported/w3c/web-platform-tests/css/css-display/display-contents-table-002-expected.html
/LayoutTests/imported/w3c/web-platform-tests/css/css-display/display-contents-table-002.html
/LayoutTests/imported/w3c/web-platform-tests/css/css-display/display-contents-td-001-expected.html
/LayoutTests/imported/w3c/web-platform-tests/css/css-display/display-contents-td-001.html
/LayoutTests/imported/w3c/web-platform-tests/css/css-display/display-contents-text-inherit-002-expected.html
/LayoutTests/imported/w3c/web-platform-tests/css/css-display/display-contents-text-inherit-002.html
/LayoutTests/imported/w3c/web-platform-tests/css/css-display/display-contents-text-inherit-expected.html
/LayoutTests/imported/w3c/web-platform-tests/css/css-display/display-contents-text-inherit.html
/LayoutTests/imported/w3c/web-platform-tests/css/css-display/display-contents-text-only-001-expected.html
/LayoutTests/imported/w3c/web-platform-tests/css/css-display/display-contents-text-only-001.html
/LayoutTests/imported/w3c/web-platform-tests/css/css-display/display-contents-tr-001-expected.html
/LayoutTests/imported/w3c/web-platform-tests/css/css-display/display-contents-tr-001.html
/LayoutTests/imported/w3c/web-platform-tests/css/css-display/display-contents-unusual-html-elements-none-expected.html
/LayoutTests/imported/w3c/web-platform-tests/css/css-display/display-contents-unusual-html-elements-none.html
/LayoutTests/imported/w3c/web-platform-tests/css/css-display/display-flow-root-001-expected.html
/LayoutTests/imported/w3c/web-platform-tests/css/css-display/display-flow-root-001.html
/LayoutTests/imported/w3c/web-platform-tests/css/css-display/display-list-item-height-after-dom-change.html
