The tests in this directory were imported from the W3C repository.
Do NOT modify these tests directly in WebKit.
Instead, create a pull request on the W3C CSS or WPT github:
	https://github.com/w3c/csswg-test
	https://github.com/w3c/web-platform-tests

Then run the Tools/Scripts/import-w3c-tests in WebKit to reimport

Do NOT modify or remove this file.

------------------------------------------------------------------------
Properties requiring vendor prefixes:
None
Property values requiring vendor prefixes:
None
------------------------------------------------------------------------
List of files:
/LayoutTests/imported/w3c/web-platform-tests/html/infrastructure/common-dom-interfaces/collections/contains.json
/LayoutTests/imported/w3c/web-platform-tests/html/infrastructure/common-dom-interfaces/collections/htmlallcollection.html
/LayoutTests/imported/w3c/web-platform-tests/html/infrastructure/common-dom-interfaces/collections/htmlformcontrolscollection.html
/LayoutTests/imported/w3c/web-platform-tests/html/infrastructure/common-dom-interfaces/collections/htmloptionscollection.html
/LayoutTests/imported/w3c/web-platform-tests/html/infrastructure/common-dom-interfaces/collections/radionodelist.html
