The tests in this directory were imported from the W3C repository.
Do NOT modify these tests directly in WebKit.
Instead, create a pull request on the WPT github:
	https://github.com/web-platform-tests/wpt

Then run the Tools/Scripts/import-w3c-tests in WebKit to reimport

Do NOT modify or remove this file.

------------------------------------------------------------------------
Properties requiring vendor prefixes:
text-align-last
Property values requiring vendor prefixes:
match-parent
------------------------------------------------------------------------
List of files:
/LayoutTests/imported/w3c/web-platform-tests/css/css-text/text-align/text-align-006-expected.html
/LayoutTests/imported/w3c/web-platform-tests/css/css-text/text-align/text-align-006.html
/LayoutTests/imported/w3c/web-platform-tests/css/css-text/text-align/text-align-007-expected.html
/LayoutTests/imported/w3c/web-platform-tests/css/css-text/text-align/text-align-007.html
/LayoutTests/imported/w3c/web-platform-tests/css/css-text/text-align/text-align-008-expected.html
/LayoutTests/imported/w3c/web-platform-tests/css/css-text/text-align/text-align-008.html
/LayoutTests/imported/w3c/web-platform-tests/css/css-text/text-align/text-align-end-001-expected.html
/LayoutTests/imported/w3c/web-platform-tests/css/css-text/text-align/text-align-end-001.html
/LayoutTests/imported/w3c/web-platform-tests/css/css-text/text-align/text-align-end-002-expected.html
/LayoutTests/imported/w3c/web-platform-tests/css/css-text/text-align/text-align-end-002.html
/LayoutTests/imported/w3c/web-platform-tests/css/css-text/text-align/text-align-end-003-expected.html
/LayoutTests/imported/w3c/web-platform-tests/css/css-text/text-align/text-align-end-003.html
/LayoutTests/imported/w3c/web-platform-tests/css/css-text/text-align/text-align-end-004-expected.html
/LayoutTests/imported/w3c/web-platform-tests/css/css-text/text-align/text-align-end-004.html
/LayoutTests/imported/w3c/web-platform-tests/css/css-text/text-align/text-align-end-005-expected.html
/LayoutTests/imported/w3c/web-platform-tests/css/css-text/text-align/text-align-end-005.html
/LayoutTests/imported/w3c/web-platform-tests/css/css-text/text-align/text-align-end-006-expected.html
/LayoutTests/imported/w3c/web-platform-tests/css/css-text/text-align/text-align-end-006.html
/LayoutTests/imported/w3c/web-platform-tests/css/css-text/text-align/text-align-end-007-expected.html
/LayoutTests/imported/w3c/web-platform-tests/css/css-text/text-align/text-align-end-007.html
/LayoutTests/imported/w3c/web-platform-tests/css/css-text/text-align/text-align-end-008-expected.html
/LayoutTests/imported/w3c/web-platform-tests/css/css-text/text-align/text-align-end-008.html
/LayoutTests/imported/w3c/web-platform-tests/css/css-text/text-align/text-align-end-009-expected.html
/LayoutTests/imported/w3c/web-platform-tests/css/css-text/text-align/text-align-end-009.html
/LayoutTests/imported/w3c/web-platform-tests/css/css-text/text-align/text-align-end-010-expected.html
/LayoutTests/imported/w3c/web-platform-tests/css/css-text/text-align/text-align-end-010.html
/LayoutTests/imported/w3c/web-platform-tests/css/css-text/text-align/text-align-end-014-expected.html
/LayoutTests/imported/w3c/web-platform-tests/css/css-text/text-align/text-align-end-014.html
/LayoutTests/imported/w3c/web-platform-tests/css/css-text/text-align/text-align-end-015-expected.html
/LayoutTests/imported/w3c/web-platform-tests/css/css-text/text-align/text-align-end-015.html
/LayoutTests/imported/w3c/web-platform-tests/css/css-text/text-align/text-align-end-016-expected.html
/LayoutTests/imported/w3c/web-platform-tests/css/css-text/text-align/text-align-end-016.html
/LayoutTests/imported/w3c/web-platform-tests/css/css-text/text-align/text-align-end-017-expected.html
/LayoutTests/imported/w3c/web-platform-tests/css/css-text/text-align/text-align-end-017.html
/LayoutTests/imported/w3c/web-platform-tests/css/css-text/text-align/text-align-end-018.html
/LayoutTests/imported/w3c/web-platform-tests/css/css-text/text-align/text-align-end-019.html
/LayoutTests/imported/w3c/web-platform-tests/css/css-text/text-align/text-align-end-020.html
/LayoutTests/imported/w3c/web-platform-tests/css/css-text/text-align/text-align-end-021.html
/LayoutTests/imported/w3c/web-platform-tests/css/css-text/text-align/text-align-justify-001-expected.html
/LayoutTests/imported/w3c/web-platform-tests/css/css-text/text-align/text-align-justify-001.html
/LayoutTests/imported/w3c/web-platform-tests/css/css-text/text-align/text-align-justify-002-expected.html
/LayoutTests/imported/w3c/web-platform-tests/css/css-text/text-align/text-align-justify-002.html
/LayoutTests/imported/w3c/web-platform-tests/css/css-text/text-align/text-align-justify-003-expected.html
/LayoutTests/imported/w3c/web-platform-tests/css/css-text/text-align/text-align-justify-003.html
/LayoutTests/imported/w3c/web-platform-tests/css/css-text/text-align/text-align-justify-004-expected.html
/LayoutTests/imported/w3c/web-platform-tests/css/css-text/text-align/text-align-justify-004.html
/LayoutTests/imported/w3c/web-platform-tests/css/css-text/text-align/text-align-justify-005-expected.html
/LayoutTests/imported/w3c/web-platform-tests/css/css-text/text-align/text-align-justify-005.html
/LayoutTests/imported/w3c/web-platform-tests/css/css-text/text-align/text-align-justify-006-expected.html
/LayoutTests/imported/w3c/web-platform-tests/css/css-text/text-align/text-align-justify-006.html
/LayoutTests/imported/w3c/web-platform-tests/css/css-text/text-align/text-align-justifyall-001-expected.html
/LayoutTests/imported/w3c/web-platform-tests/css/css-text/text-align/text-align-justifyall-001.html
/LayoutTests/imported/w3c/web-platform-tests/css/css-text/text-align/text-align-justifyall-002-expected.html
/LayoutTests/imported/w3c/web-platform-tests/css/css-text/text-align/text-align-justifyall-002.html
/LayoutTests/imported/w3c/web-platform-tests/css/css-text/text-align/text-align-justifyall-003-expected.html
/LayoutTests/imported/w3c/web-platform-tests/css/css-text/text-align/text-align-justifyall-003.html
/LayoutTests/imported/w3c/web-platform-tests/css/css-text/text-align/text-align-justifyall-004-expected.html
/LayoutTests/imported/w3c/web-platform-tests/css/css-text/text-align/text-align-justifyall-004.html
/LayoutTests/imported/w3c/web-platform-tests/css/css-text/text-align/text-align-justifyall-005-expected.html
/LayoutTests/imported/w3c/web-platform-tests/css/css-text/text-align/text-align-justifyall-005.html
/LayoutTests/imported/w3c/web-platform-tests/css/css-text/text-align/text-align-justifyall-006-expected.html
/LayoutTests/imported/w3c/web-platform-tests/css/css-text/text-align/text-align-justifyall-006.html
/LayoutTests/imported/w3c/web-platform-tests/css/css-text/text-align/text-align-last-001.html
/LayoutTests/imported/w3c/web-platform-tests/css/css-text/text-align/text-align-last-002.html
/LayoutTests/imported/w3c/web-platform-tests/css/css-text/text-align/text-align-last-003.html
/LayoutTests/imported/w3c/web-platform-tests/css/css-text/text-align/text-align-last-004.html
/LayoutTests/imported/w3c/web-platform-tests/css/css-text/text-align/text-align-last-005.html
/LayoutTests/imported/w3c/web-platform-tests/css/css-text/text-align/text-align-last-006.html
/LayoutTests/imported/w3c/web-platform-tests/css/css-text/text-align/text-align-last-007.html
/LayoutTests/imported/w3c/web-platform-tests/css/css-text/text-align/text-align-last-008.html
/LayoutTests/imported/w3c/web-platform-tests/css/css-text/text-align/text-align-last-009.html
/LayoutTests/imported/w3c/web-platform-tests/css/css-text/text-align/text-align-last-010-expected.html
/LayoutTests/imported/w3c/web-platform-tests/css/css-text/text-align/text-align-last-010.html
/LayoutTests/imported/w3c/web-platform-tests/css/css-text/text-align/text-align-last-011-expected.html
/LayoutTests/imported/w3c/web-platform-tests/css/css-text/text-align/text-align-last-011.html
/LayoutTests/imported/w3c/web-platform-tests/css/css-text/text-align/text-align-last-012.html
/LayoutTests/imported/w3c/web-platform-tests/css/css-text/text-align/text-align-last-013.html
/LayoutTests/imported/w3c/web-platform-tests/css/css-text/text-align/text-align-last-014.html
/LayoutTests/imported/w3c/web-platform-tests/css/css-text/text-align/text-align-start-001-expected.html
/LayoutTests/imported/w3c/web-platform-tests/css/css-text/text-align/text-align-start-001.html
/LayoutTests/imported/w3c/web-platform-tests/css/css-text/text-align/text-align-start-002-expected.html
/LayoutTests/imported/w3c/web-platform-tests/css/css-text/text-align/text-align-start-002.html
/LayoutTests/imported/w3c/web-platform-tests/css/css-text/text-align/text-align-start-003-expected.html
/LayoutTests/imported/w3c/web-platform-tests/css/css-text/text-align/text-align-start-003.html
/LayoutTests/imported/w3c/web-platform-tests/css/css-text/text-align/text-align-start-004-expected.html
/LayoutTests/imported/w3c/web-platform-tests/css/css-text/text-align/text-align-start-004.html
/LayoutTests/imported/w3c/web-platform-tests/css/css-text/text-align/text-align-start-005-expected.html
/LayoutTests/imported/w3c/web-platform-tests/css/css-text/text-align/text-align-start-005.html
/LayoutTests/imported/w3c/web-platform-tests/css/css-text/text-align/text-align-start-006-expected.html
/LayoutTests/imported/w3c/web-platform-tests/css/css-text/text-align/text-align-start-006.html
/LayoutTests/imported/w3c/web-platform-tests/css/css-text/text-align/text-align-start-007-expected.html
/LayoutTests/imported/w3c/web-platform-tests/css/css-text/text-align/text-align-start-007.html
/LayoutTests/imported/w3c/web-platform-tests/css/css-text/text-align/text-align-start-008-expected.html
/LayoutTests/imported/w3c/web-platform-tests/css/css-text/text-align/text-align-start-008.html
/LayoutTests/imported/w3c/web-platform-tests/css/css-text/text-align/text-align-start-009-expected.html
/LayoutTests/imported/w3c/web-platform-tests/css/css-text/text-align/text-align-start-009.html
/LayoutTests/imported/w3c/web-platform-tests/css/css-text/text-align/text-align-start-010-expected.html
/LayoutTests/imported/w3c/web-platform-tests/css/css-text/text-align/text-align-start-010.html
/LayoutTests/imported/w3c/web-platform-tests/css/css-text/text-align/text-align-start-014-expected.html
/LayoutTests/imported/w3c/web-platform-tests/css/css-text/text-align/text-align-start-014.html
/LayoutTests/imported/w3c/web-platform-tests/css/css-text/text-align/text-align-start-015-expected.html
/LayoutTests/imported/w3c/web-platform-tests/css/css-text/text-align/text-align-start-015.html
/LayoutTests/imported/w3c/web-platform-tests/css/css-text/text-align/text-align-start-016-expected.html
/LayoutTests/imported/w3c/web-platform-tests/css/css-text/text-align/text-align-start-016.html
/LayoutTests/imported/w3c/web-platform-tests/css/css-text/text-align/text-align-start-017-expected.html
/LayoutTests/imported/w3c/web-platform-tests/css/css-text/text-align/text-align-start-017.html
/LayoutTests/imported/w3c/web-platform-tests/css/css-text/text-align/text-align-start-018.html
/LayoutTests/imported/w3c/web-platform-tests/css/css-text/text-align/text-align-start-019.html
/LayoutTests/imported/w3c/web-platform-tests/css/css-text/text-align/text-align-start-020.html
/LayoutTests/imported/w3c/web-platform-tests/css/css-text/text-align/text-align-start-021.html
