(GraphicsLayer
  (anchor 0.00 0.00)
  (bounds 800.00 600.00)
  (clips 1)
  (children 1
    (GraphicsLayer
      (bounds 800.00 600.00)
      (contentsOpaque 1)
      (children 1
        (GraphicsLayer
          (position 8.00 8.00)
          (bounds 302.00 302.00)
          (drawsContent 1)
          (children 1
            (GraphicsLayer
              (offsetFromRenderer width=1 height=1)
              (position 1.00 1.00)
              (bounds 300.00 300.00)
              (clips 1)
              (children 1
                (GraphicsLayer
                  (offsetFromRenderer width=1 height=1)
                  (anchor 0.00 0.00)
                  (bounds 300.00 1240.00)
                  (drawsContent 1)
                )
              )
            )
          )
        )
      )
    )
  )
)

